{
  "kind": "collectionType",
  "collectionName": "check_ins",
  "info": {
    "singularName": "check-in",
    "pluralName": "check-ins",
    "displayName": "checkIn",
    "description": ""
  },
  "options": {
    "draftAndPublish": true
  },
  "pluginOptions": {},
  "attributes": {
    "dateTime": {
      "type": "datetime"
    },
    "user": {
      "type": "relation",
      "relation": "manyToOne",
      "target": "plugin::users-permissions.user",
      "inversedBy": "check_ins"
    },
    "schedule": {
      "type": "relation",
      "relation": "manyToOne",
      "target": "api::schedule.schedule",
      "inversedBy": "check_ins"
    },
    "department": {
      "type": "relation",
      "relation": "manyToOne",
      "target": "api::department.department",
      "inversedBy": "check_ins"
    }
  }
}
